[
	{
		"file_commit_id": "10cf2cc0a93f980b1ed3e674d02f7781d4b8ae7f",
		"file_hash": "93a0dbf5e5b73b6b913d3308ed9bd3df8a0981f9",
		"utc_commit_date": "2023-08-17 16:58:55",
		"file": "content/blog/2022/2022-12-07-introducing-the-global-equitable-membership-program.md",
		"version": "0.0.0",
		"url": null,
		"current_id": "BQBEWkP5EL",
		"production_domain": "https://test.org",
		"doi_prefix": "x.x.x"
	},
	{
		"file_commit_id": "6edf81647d8e2823d6a0856a26dccdc5ce5b9054",
		"file_hash": "73a933fb1c431b731a4f7b8a1b312c4c64bde1f8",
		"utc_commit_date": "2023-08-17 16:58:55",
		"file": "content/blog/2022/2022-10-10-crossref-membership-and-isr.md",
		"version": "0.0.0",
		"url": null,
		"current_id": "H4S6n7pUAY",
		"production_domain": "https://test.org",
		"doi_prefix": "x.x.x"
	},
	{
		"file_commit_id": "7e69578e20568842b18397db17662b960d14113a",
		"file_hash": "48691c4c68b883857f8a7162107efd6175a3d074",
		"utc_commit_date": "2023-08-17 16:58:55",
		"file": "content/blog/2022/2022-09-16-2022-board-election.md",
		"version": "0.0.0",
		"url": null,
		"current_id": "BtoMsdMogc",
		"production_domain": "https://test.org",
		"doi_prefix": "x.x.x"
	},
	{
		"file_commit_id": "7ca5fcff1c44bbac6f060eba2e9773bbd2ac12e9",
		"file_hash": "2e6bec0362afd55611e51305012bc988ef8ddcfd",
		"utc_commit_date": "2023-08-17 16:58:55",
		"file": "content/blog/2022/2022-09-22-crossref-role-integrity-scholarly-record.md",
		"version": "0.0.0",
		"url": null,
		"current_id": "hoQdYoF8Zc",
		"production_domain": "https://test.org",
		"doi_prefix": "x.x.x"
	},
	{
		"file_commit_id": "f360e5d8bcf12b75d7447ac9344ba7aff74ca89e",
		"file_hash": "b6b9300bf40f5267539e91cebf577b2d63f28e8e",
		"utc_commit_date": "2023-08-17 16:58:56",
		"file": "content/blog/2022/2022-11-17-practical-guide-for-funders-open-science-ostp-2022.md",
		"version": "0.0.0",
		"url": null,
		"current_id": "3HELu67rPG",
		"production_domain": "https://test.org",
		"doi_prefix": "x.x.x"
	},
	{
		"file_commit_id": "c84d13622e53c71d2c5f54aa57705a94d1be006c",
		"file_hash": "52c58c15c1d0d0b72743353a7c2af4db44aad7d3",
		"utc_commit_date": "2023-08-17 16:58:56",
		"file": "content/blog/2022/2022-10-17-where-does-crossref-have-the-most-impact.md",
		"version": "0.0.0",
		"url": null,
		"current_id": "LQkaKPx6UG",
		"production_domain": "https://test.org",
		"doi_prefix": "x.x.x"
	},
	{
		"file_commit_id": "f44af0ac6a4baee6e2a151f9f3ced0d352eb52ac",
		"file_hash": "a8dbb899be25f249c7993b601ae3e455611d69dc",
		"utc_commit_date": "2023-08-17 16:58:56",
		"file": "content/blog/2022/2022-11-09-preprint-schema-recommendations.md",
		"version": "0.0.0",
		"url": null,
		"current_id": "3xFanmZMZ4",
		"production_domain": "https://test.org",
		"doi_prefix": "x.x.x"
	},
	{
		"file_commit_id": "2c634be2c98fdcf821d64758af50dfcbdfa3962d",
		"file_hash": "8364da0808f6ed90774fd785a6ce8a0c09cb99ad",
		"utc_commit_date": "2023-08-17 16:58:56",
		"file": "content/blog/2022/2022-10-19-forming-new-relationships-contributing-to-open-source.md",
		"version": "0.0.0",
		"url": null,
		"current_id": "37CiEHmMwq",
		"production_domain": "https://test.org",
		"doi_prefix": "x.x.x"
	},
	{
		"file_commit_id": "469049db621961b0e2370028e7c33c24f9cfb42d",
		"file_hash": "99f823af5715c7df410b283a36af63e24d0a7271",
		"utc_commit_date": "2023-08-17 16:58:56",
		"file": "content/blog/2023/2023-03-23-cite-data-now.md",
		"version": "0.0.0",
		"url": null,
		"current_id": "im8j4HbXUC",
		"production_domain": "https://test.org",
		"doi_prefix": "x.x.x"
	},
	{
		"file_commit_id": "58938f099b70a3a176eccfaf5f785cbd2d1430cd",
		"file_hash": "9efd207eef7d9154bc3a074983512bc9f6264b51",
		"utc_commit_date": "2023-08-17 16:58:56",
		"file": "content/blog/2023/2023-04-01-renewed-persistence.md",
		"version": "0.0.0",
		"url": null,
		"current_id": "tQaWrCHX4c",
		"production_domain": "https://test.org",
		"doi_prefix": "x.x.x"
	},
	{
		"file_commit_id": "2544a02b1aa64d5bff25fadb8713d17a44b2924e",
		"file_hash": "fba59abdb1a90392d64f4ee1da6329706f06e6a9",
		"utc_commit_date": "2023-08-17 16:58:56",
		"file": "content/blog/2023/2023-02-28-in-the-know-on-workflows.md",
		"version": "0.0.0",
		"url": null,
		"current_id": "3DJhD57M4U",
		"production_domain": "https://test.org",
		"doi_prefix": "x.x.x"
	},
	{
		"file_commit_id": "0f8a9f81cdf593bd72968d02c9e37acd69c8208b",
		"file_hash": "1f07b27b93ef5abb0bf83c0e1ef878b5b839fd11",
		"utc_commit_date": "2023-08-17 16:58:56",
		"file": "content/blog/2023/2023-05-02-2023-public-data-file-now-available-with-new-and-improved-retrieval-options.md",
		"version": "0.0.0",
		"url": null,
		"current_id": "tFHweybqRX",
		"production_domain": "https://test.org",
		"doi_prefix": "x.x.x"
	},
	{
		"file_commit_id": "0177f6c39c8f98126fd907d929fe2449e14a20af",
		"file_hash": "7e5fca8f54024002ccb2b0807a1f1756fa47ff81",
		"utc_commit_date": "2023-08-17 16:58:56",
		"file": "content/blog/2023/2023-05-30-our-annual-call-for-board-nominations.md",
		"version": "0.0.0",
		"url": null,
		"current_id": "KYRn5UVLiX",
		"production_domain": "https://test.org",
		"doi_prefix": "x.x.x"
	},
	{
		"file_commit_id": "566015997a50b36b8aede80c28e6013a2f5d678d",
		"file_hash": "54b478c3efcc5c760bfaa5695221d9b7c6e17bda",
		"utc_commit_date": "2023-08-17 16:58:56",
		"file": "content/blog/2023/2023-03-14-shooting-for-the-stars.md",
		"version": "0.0.0",
		"url": null,
		"current_id": "o83TCtZTKU",
		"production_domain": "https://test.org",
		"doi_prefix": "x.x.x"
	},
	{
		"file_commit_id": "7e5aa9aa6c360dd53874ddb70f5f742bab672b6f",
		"file_hash": "4c1baab892caf104559ec542238ce2f68c1f8e8c",
		"utc_commit_date": "2023-08-17 16:58:57",
		"file": "content/blog/2023/2023-05-12-metadata-connects-the-global-community-summary-of-our-community-update-2023.md",
		"version": "0.0.0",
		"url": null,
		"current_id": "3smB9EqsxV",
		"production_domain": "https://test.org",
		"doi_prefix": "x.x.x"
	},
	{
		"file_commit_id": "8d8b4aae7759f9dbe68ca5defa543492261418c3",
		"file_hash": "5cb82878e38c96b016c3f44ecaac68bf54dcd921",
		"utc_commit_date": "2023-08-17 16:58:57",
		"file": "content/blog/2023/2023-05-01-similarity-check-ithenticate-v2-enhanced-interface-for-administrators.md",
		"version": "0.0.0",
		"url": null,
		"current_id": "3WbYrk4S9Y",
		"production_domain": "https://test.org",
		"doi_prefix": "x.x.x"
	}
]
